     {
        "general": {
          "name": "Doc Rodriguez",
          "player": "Landrew Woolworth",
          "playerID": 3
        },
        "status": {
          "lifePoints": "",
          "lifePointsMax": "",
          "stunPoints": "",
          "stunPointsMax": "",
          "initiative": "",
          "endurance": "",
          "resistance": "",
          "plotPoints": "",
          "advPoints": "",
          "credits": 0,
          "armor": [],
          "Weapons": [],
          "statusEffects": {
            "positive": "",
            "negative": ""
          }
        },
        "skills": [],
        "assets": [],
        "comps": [],
        "stats": [
          {
            "value": "",
            "title": "Strength"
          },
          {
            "value": "",
            "title": "Agility"
          },
          {
            "value": "",
            "title": "Vitality"
          },
          {
            "value": "",
            "title": "Alertness"
          },
          {
            "value": "",
            "title": "Intelligence"
          },
          {
            "value": "",
            "title": "Willpower"
          }
        ],
        "inventory": [
          {
            "type": "general items",
            "icon": "fa-briefcase",
            "items": []
          },
          {
            "type": "weapons",
            "icon": "fa-crosshairs",
            "items": []
          },
          {
            "type": "armor",
            "icon": "fa-black-tie",
            "items": []
          },
          {
            "type": "foodstuffs",
            "icon": "fa-cutlery",
            "items": []
          }
        ]
      }